…
twig_fun <- function(n) ehlib::rztpois(n = n, lambda = 2)
```

Example
-------

``` r
treeViz(5, angle_fun, length_fun)
#> # A tibble: 105 x 6
#>     x_from    x_to y_from  y_to group  angle
#>      <dbl>   <dbl>  <dbl> <dbl> <int>  <dbl>
#>  1  0      -0.326    1.00  1.95     1  0.332
#>  2 -0.326  -0.841    1.95  2.80     1  0.209
#>  3 -0.841  -1.08     2.80  3.77     1 -0.297
#>  4 -1.08   -1.10     3.77  4.77     1 -0.227
#>  5 -1.10   -0.808    4.77  5.73     1 -0.314
#>  6 -0.808  -0.338    5.73  6.61     1 -0.192
#>  7 -0.338  -0.0962   6.61  7.58     1  0.244
#>  8 -0.0962  0.358    7.58  8.47     1 -0.227
#>  9  0.358   1.04     8.47  9.20     1 -0.279
#> 10  1.04    1.84     9.20  9.81     1 -0.175
#> # ... with 95 more rows
```
…
